Topic 3: 1-way Analysis of Variance
…
.pull-right[
**After**
.scroll-box-10[

```
## # A tibble: 30 x 2
##    breed  weight
##    <fct>   <dbl>
##  1 Breed1   188.
##  2 Breed2   148.
##  3 Breed1   180.
##  4 Breed2   146.
##  5 Breed1   199.
##  6 Breed2   153.
##  7 Breed1   191.
##  8 Breed2   135.
##  9 Breed1   196.
## 10 Breed2   151.
## # … with 20 more rows
```
…
